# Apple ModelIO OBJ File: flag-pennant
mtllib flag-pennant.mtl
g 
v -0.0307 -1.60296e-31 0.0307 1 1 1
v 0.0307 -1.60296e-31 -0.0307 1 1 1
v 0.0307 -1.60296e-31 0.0307 1 1 1
v -0.0307 -1.60296e-31 -0.0307 1 1 1
v -0.017499 0.786631 -0.017499 1 1 1
v 0.017499 0.786631 -0.017499 1 1 1
v 0.017499 0.786631 0.017499 1 1 1
v -0.017499 0.786631 0.017499 1 1 1
v 0.0354585 0 0.0531878 1 1 1
v 0.0531877 0 -0.0354585 1 1 1
v 0.0531877 0 0.0354585 1 1 1
v 0.0354585 0 -0.0531877 1 1 1
v -0.0354585 0 0.0531878 1 1 1
v -0.0354585 0 -0.0531877 1 1 1
v -0.0531878 0 0.0354585 1 1 1
v -0.0531878 0 -0.0354585 1 1 1
v 0.0272846 0.225 -0.0409269 1 1 1
v 0.0409269 0.225 0.0272846 1 1 1
v 0.0409269 0.225 -0.0272846 1 1 1
v 0.0272846 0.225 0.0409269 1 1 1
v -0.0272846 0.225 -0.0409269 1 1 1
v -0.0272846 0.225 0.0409269 1 1 1
v -0.0409269 0.225 -0.0272846 1 1 1
v -0.0409269 0.225 0.0272846 1 1 1
v -0.0098923 0.865614 -0.0098923 1 1 1
v 0.0098923 0.865614 0.0098923 1 1 1
v 0.0098923 0.865614 -0.0098923 1 1 1
v -0.0098923 0.865614 0.0098923 1 1 1
v -0.0286937 0.81478 0.0286937 1 1 1
v -0.0286937 0.81478 -0.0286937 1 1 1
v 0.0286937 0.81478 0.0286937 1 1 1
v 0.0286937 0.81478 -0.0286937 1 1 1
v 0 0.7 -0.4007 1 1 1
v 0 0.64 -0.4007 1 1 1
v -0.028178 0.658923 -0.438033 1 1 1
v -0.028178 0.681487 -0.483162 1 1 1
v -0.025204 0.7 -0.438135 1 1 1
v 0.0352081 0.715598 -0.350786 1 1 1
v 0 0.7 -0.5207 1 1 1
v -0.025204 0.7 -0.483265 1 1 1
v 0 0.6 -0.2407 1 1 1
v 0.0346396 0.612512 -0.290605 1 1 1
v 0 0.75 -0.2407 1 1 1
v 0.0346396 0.627555 -0.350778 1 1 1
v 0.0352081 0.734402 -0.290614 1 1 1
v 0 0.75 -0.0307 1 1 1
v -0.0441071 0.6 -0.0962119 1 1 1
v -0.0441071 0.75 -0.0962119 1 1 1
v 0 0.6 -0.0307 1 1 1
v -0.0441071 0.6 -0.175188 1 1 1
v -0.0441071 0.75 -0.175188 1 1 1
v 0.0307 0.6 0.04605 1 1 1
v 0.04605 0.6 -0.0307 1 1 1
v 0.04605 0.6 0.0307 1 1 1
v 0.0307 0.6 -0.04605 1 1 1
v -0.0307 0.6 0.04605 1 1 1
v -0.0307 0.6 -0.04605 1 1 1
v -0.04605 0.6 0.0307 1 1 1
v -0.04605 0.6 -0.0307 1 1 1
v 0.0307 0.75 -0.04605 1 1 1
v 0.04605 0.75 0.0307 1 1 1
v 0.04605 0.75 -0.0307 1 1 1
v 0.0307 0.75 0.04605 1 1 1
v -0.0307 0.75 -0.04605 1 1 1
v -0.0307 0.75 0.04605 1 1 1
v -0.04605 0.75 -0.0307 1 1 1
v -0.04605 0.75 0.0307 1 1 1
vn 0 -1 0
vn 0 0.0167793 -0.999859
vn 0 0.0167793 0.999859
vn 0.999859 0.0167793 0
vn -0.999859 0.0167793 0
vn 0 1 0
vn 0.37898 0.0640743 0.923184
vn 0.920819 0.0641524 0.384678
vn 0.923184 0.0640743 0.37898
vn 0.384678 0.0641524 0.920819
vn -0.923184 0.0640743 -0.37898
vn -0.384678 0.0641524 -0.920819
vn -0.920819 0.0641524 -0.384678
vn -0.37898 0.0640743 -0.923184
vn -0.37898 0.0640743 0.923184
vn -0.920819 0.0641524 0.384678
vn -0.384678 0.0641524 0.920819
vn -0.923184 0.0640743 0.37898
vn 0.923184 0.0640743 -0.37898
vn 0.920819 0.0641524 -0.384678
vn 0.37898 0.0640743 -0.923184
vn 0.384678 0.0641524 -0.920819
vn -0.929212 -0.369546 0
vn -0.99996 -0.00899431 0
vn 0.99996 -0.00899431 0
vn 0.929212 -0.369546 0
vn 0 -0.00899431 0.99996
vn 0 -0.369546 0.929212
vn 0 -0.00899431 -0.99996
vn 0 -0.369546 -0.929212
vn 0 0.346888 -0.937907
vn 0 0.346888 0.937907
vn 0.937907 0.346888 0
vn -0.937907 0.346888 0
vn 0.815099 -0.0130623 -0.579174
vn 0.811081 -0.00197869 -0.584931
vn 0.915787 -0.0447005 -0.399168
vn -0.915787 0.0447005 0.399168
vn -0.811081 0.00197869 0.584931
vn -0.815099 0.0130623 0.579174
vn 0.972695 -0.130128 0.192177
vn 0.94816 -0.0806606 -0.307387
vn -0.94816 0.0806606 0.307387
vn -0.972695 0.130128 -0.192177
vn 0.969066 -0.00515831 -0.246748
vn -0.969066 0.00515831 0.246748
vn 0.822575 -0.129079 0.553814
vn 0.942707 -0.149792 0.298104
vn -0.942707 0.149792 -0.298104
vn -0.822575 0.129079 -0.553814
vn 0.825805 0 0.563956
vn 0.939533 -0.00261985 0.342447
vn 0.824366 -0.00117911 0.566055
vn -0.824366 0.00117911 -0.566055
vn -0.939533 0.00261985 -0.342447
vn -0.825805 0 -0.563956
vn 0.966269 -0.00549614 -0.257477
vn -0.966269 0.00549614 0.257477
vn 0.934286 -0.00479187 0.356491
vn -0.934286 0.00479187 -0.356491
vn 0.829514 0 -0.558486
vn 0.956429 0 -0.291964
vn -0.956429 0 0.291964
vn -0.829514 0 0.558486
vn 0.956429 0 0.291964
vn -0.956429 0 -0.291964
vn 0.92388 0 0.382683
vn 0.92388 0 -0.382683
vn -0.382683 0 -0.92388
vn 0.382683 0 -0.92388
vn -0.92388 0 0.382683
vn -0.92388 0 -0.382683
vn 0.382683 0 0.92388
vn -0.382683 0 0.92388
vt 0.59375 0.025
vt 0.59375 0.206751
vt 0.59375 0.225
vt 0.59375 0.475
vt 0.59375 0.456751
vt 0.59375 0.463255
vt 0.59375 0.408333
vt 0.59375 0.328333
vt 0.59375 0.353563
vt 0.59375 0.38365
vt 0.59375 0.429131
vt 0.59375 0.275
vt 0.59375 0.291683
vt 0.59375 0.31174
vt 0.59375 0.454203
usemtl colormap
f 1/1/1 2/1/1 3/1/1
f 2/1/1 1/1/1 4/1/1
f 5/2/2 2/1/2 4/1/2
f 2/1/2 5/2/2 6/2/2
f 7/2/3 1/1/3 3/1/3
f 1/1/3 7/2/3 8/2/3
f 6/2/4 3/1/4 2/1/4
f 3/1/4 6/2/4 7/2/4
f 1/1/5 5/2/5 4/1/5
f 5/2/5 1/1/5 8/2/5
f 9/1/1 10/1/1 11/1/1
f 10/1/1 9/1/1 12/1/1
f 12/1/1 9/1/1 13/1/1
f 12/1/1 13/1/1 14/1/1
f 14/1/1 13/1/1 15/1/1
f 14/1/1 15/1/1 16/1/1
f 17/3/6 18/3/6 19/3/6
f 18/3/6 17/3/6 20/3/6
f 20/3/6 17/3/6 21/3/6
f 20/3/6 21/3/6 22/3/6
f 22/3/6 21/3/6 23/3/6
f 22/3/6 23/3/6 24/3/6
f 20/3/7 11/1/8 18/3/9
f 11/1/8 20/3/7 9/1/10
f 23/3/11 14/1/12 16/1/13
f 14/1/12 23/3/11 21/3/14
f 22/3/15 15/1/16 13/1/17
f 15/1/16 22/3/15 24/3/18
f 15/1/16 23/3/11 16/1/13
f 23/3/11 15/1/16 24/3/18
f 20/3/7 13/1/17 9/1/10
f 13/1/17 20/3/7 22/3/15
f 19/3/19 11/1/8 10/1/20
f 11/1/8 19/3/19 18/3/9
f 17/3/21 10/1/20 12/1/22
f 10/1/20 17/3/21 19/3/19
f 21/3/14 12/1/22 14/1/12
f 12/1/22 21/3/14 17/3/21
f 25/4/6 26/4/6 27/4/6
f 26/4/6 25/4/6 28/4/6
f 5/5/23 29/6/24 30/6/24
f 29/6/24 5/5/23 8/5/23
f 31/6/25 6/5/26 32/6/25
f 6/5/26 31/6/25 7/5/26
f 31/6/27 8/5/28 7/5/28
f 8/5/28 31/6/27 29/6/27
f 30/6/29 6/5/30 5/5/30
f 6/5/30 30/6/29 32/6/29
f 25/4/31 32/6/29 30/6/29
f 32/6/29 25/4/31 27/4/31
f 26/4/32 29/6/27 31/6/27
f 29/6/27 26/4/32 28/4/32
f 27/4/33 31/6/25 32/6/25
f 31/6/25 27/4/33 26/4/33
f 29/6/24 25/4/34 30/6/24
f 25/4/34 29/6/24 28/4/34
f 33/7/35 34/8/36 35/9/37
f 35/9/38 34/8/39 33/7/40
f 35/9/37 36/10/41 37/7/42
f 37/7/43 36/10/44 35/9/38
f 38/11/45 34/8/36 33/7/35
f 33/7/40 34/8/39 38/11/46
f 36/10/41 39/7/47 40/7/48
f 40/7/49 39/7/50 36/10/44
f 41/12/51 42/13/52 43/4/53
f 43/4/54 42/13/55 41/12/56
f 33/7/35 35/9/37 37/7/42
f 37/7/43 35/9/38 33/7/40
f 44/14/57 34/8/36 38/11/45
f 38/11/46 34/8/39 44/14/58
f 43/4/53 42/13/52 45/15/59
f 45/15/60 42/13/55 43/4/54
f 37/7/42 36/10/41 40/7/48
f 40/7/49 36/10/44 37/7/43
f 45/15/59 44/14/57 38/11/45
f 42/13/52 44/14/57 45/15/59
f 38/11/46 44/14/58 45/15/60
f 45/15/60 44/14/58 42/13/55
f 46/4/61 47/12/62 48/4/62
f 47/12/62 46/4/61 49/12/61
f 48/4/63 47/12/63 46/4/64
f 49/12/64 46/4/64 47/12/63
f 48/4/62 50/12/65 51/4/65
f 50/12/65 48/4/62 47/12/62
f 51/4/66 50/12/66 48/4/63
f 47/12/63 48/4/63 50/12/66
f 51/4/65 41/12/51 43/4/53
f 41/12/51 51/4/65 50/12/65
f 43/4/54 41/12/56 51/4/66
f 50/12/66 51/4/66 41/12/56
f 52/12/1 53/12/1 54/12/1
f 53/12/1 52/12/1 55/12/1
f 55/12/1 52/12/1 56/12/1
f 55/12/1 56/12/1 57/12/1
f 57/12/1 56/12/1 58/12/1
f 57/12/1 58/12/1 59/12/1
f 60/4/6 61/4/6 62/4/6
f 61/4/6 60/4/6 63/4/6
f 63/4/6 60/4/6 64/4/6
f 63/4/6 64/4/6 65/4/6
f 65/4/6 64/4/6 66/4/6
f 65/4/6 66/4/6 67/4/6
f 61/4/67 53/12/68 62/4/68
f 53/12/68 61/4/67 54/12/67
f 64/4/69 55/12/70 57/12/69
f 55/12/70 64/4/69 60/4/70
f 58/12/71 66/4/72 59/12/72
f 66/4/72 58/12/71 67/4/71
f 63/4/73 56/12/74 52/12/73
f 56/12/74 63/4/73 65/4/74
f 63/4/73 54/12/67 61/4/67
f 54/12/67 63/4/73 52/12/73
f 62/4/68 55/12/70 60/4/70
f 55/12/70 62/4/68 53/12/68
f 66/4/72 57/12/69 59/12/72
f 57/12/69 66/4/72 64/4/69
f 65/4/74 58/12/71 56/12/74
f 58/12/71 65/4/74 67/4/71
s off
g _1
vn 0 -1 0
vn 0 0.0167793 -0.999859
vn 0 0.0167793 0.999859
vn 0.999859 0.0167793 0
vn -0.999859 0.0167793 0
vn 0 1 0
vn 0.37898 0.0640743 0.923184
vn 0.920819 0.0641524 0.384678
vn 0.923184 0.0640743 0.37898
vn 0.384678 0.0641524 0.920819
vn -0.923184 0.0640743 -0.37898
vn -0.384678 0.0641524 -0.920819
vn -0.920819 0.0641524 -0.384678
vn -0.37898 0.0640743 -0.923184
vn -0.37898 0.0640743 0.923184
vn -0.920819 0.0641524 0.384678
vn -0.384678 0.0641524 0.920819
vn -0.923184 0.0640743 0.37898
vn 0.923184 0.0640743 -0.37898
vn 0.920819 0.0641524 -0.384678
vn 0.37898 0.0640743 -0.923184
vn 0.384678 0.0641524 -0.920819
vn -0.929212 -0.369546 0
vn -0.99996 -0.00899431 0
vn 0.99996 -0.00899431 0
vn 0.929212 -0.369546 0
vn 0 -0.00899431 0.99996
vn 0 -0.369546 0.929212
vn 0 -0.00899431 -0.99996
vn 0 -0.369546 -0.929212
vn 0 0.346888 -0.937907
vn 0 0.346888 0.937907
vn 0.937907 0.346888 0
vn -0.937907 0.346888 0
vn 0.815099 -0.0130623 -0.579174
vn 0.811081 -0.00197869 -0.584931
vn 0.915787 -0.0447005 -0.399168
vn -0.915787 0.0447005 0.399168
vn -0.811081 0.00197869 0.584931
vn -0.815099 0.0130623 0.579174
vn 0.972695 -0.130128 0.192177
vn 0.94816 -0.0806606 -0.307387
vn -0.94816 0.0806606 0.307387
vn -0.972695 0.130128 -0.192177
vn 0.969066 -0.00515831 -0.246748
vn -0.969066 0.00515831 0.246748
vn 0.822575 -0.129079 0.553814
vn 0.942707 -0.149792 0.298104
vn -0.942707 0.149792 -0.298104
vn -0.822575 0.129079 -0.553814
vn 0.825805 0 0.563956
vn 0.939533 -0.00261985 0.342447
vn 0.824366 -0.00117911 0.566055
vn -0.824366 0.00117911 -0.566055
vn -0.939533 0.00261985 -0.342447
vn -0.825805 0 -0.563956
vn 0.966269 -0.00549614 -0.257477
vn -0.966269 0.00549614 0.257477
vn 0.934286 -0.00479187 0.356491
vn -0.934286 0.00479187 -0.356491
vn 0.829514 0 -0.558486
vn 0.956429 0 -0.291964
vn -0.956429 0 0.291964
vn -0.829514 0 0.558486
vn 0.956429 0 0.291964
vn -0.956429 0 -0.291964
vn 0.92388 0 0.382683
vn 0.92388 0 -0.382683
vn -0.382683 0 -0.92388
vn 0.382683 0 -0.92388
vn -0.92388 0 0.382683
vn -0.92388 0 -0.382683
vn 0.382683 0 0.92388
vn -0.382683 0 0.92388
vt 0.59375 0.025
vt 0.59375 0.206751
vt 0.59375 0.225
vt 0.59375 0.475
vt 0.59375 0.456751
vt 0.59375 0.463255
vt 0.59375 0.408333
vt 0.59375 0.328333
vt 0.59375 0.353563
vt 0.59375 0.38365
vt 0.59375 0.429131
vt 0.59375 0.275
vt 0.59375 0.291683
vt 0.59375 0.31174
vt 0.59375 0.454203
usemtl colormap
f 1/16/75 2/16/75 3/16/75
f 2/16/75 1/16/75 4/16/75
f 5/17/76 2/16/76 4/16/76
f 2/16/76 5/17/76 6/17/76
f 7/17/77 1/16/77 3/16/77
f 1/16/77 7/17/77 8/17/77
f 6/17/78 3/16/78 2/16/78
f 3/16/78 6/17/78 7/17/78
f 1/16/79 5/17/79 4/16/79
f 5/17/79 1/16/79 8/17/79
f 9/16/75 10/16/75 11/16/75
f 10/16/75 9/16/75 12/16/75
f 12/16/75 9/16/75 13/16/75
f 12/16/75 13/16/75 14/16/75
f 14/16/75 13/16/75 15/16/75
f 14/16/75 15/16/75 16/16/75
f 17/18/80 18/18/80 19/18/80
f 18/18/80 17/18/80 20/18/80
f 20/18/80 17/18/80 21/18/80
f 20/18/80 21/18/80 22/18/80
f 22/18/80 21/18/80 23/18/80
f 22/18/80 23/18/80 24/18/80
f 20/18/81 11/16/82 18/18/83
f 11/16/82 20/18/81 9/16/84
f 23/18/85 14/16/86 16/16/87
f 14/16/86 23/18/85 21/18/88
f 22/18/89 15/16/90 13/16/91
f 15/16/90 22/18/89 24/18/92
f 15/16/90 23/18/85 16/16/87
f 23/18/85 15/16/90 24/18/92
f 20/18/81 13/16/91 9/16/84
f 13/16/91 20/18/81 22/18/89
f 19/18/93 11/16/82 10/16/94
f 11/16/82 19/18/93 18/18/83
f 17/18/95 10/16/94 12/16/96
f 10/16/94 17/18/95 19/18/93
f 21/18/88 12/16/96 14/16/86
f 12/16/96 21/18/88 17/18/95
f 25/19/80 26/19/80 27/19/80
f 26/19/80 25/19/80 28/19/80
f 5/20/97 29/21/98 30/21/98
f 29/21/98 5/20/97 8/20/97
f 31/21/99 6/20/100 32/21/99
f 6/20/100 31/21/99 7/20/100
f 31/21/101 8/20/102 7/20/102
f 8/20/102 31/21/101 29/21/101
f 30/21/103 6/20/104 5/20/104
f 6/20/104 30/21/103 32/21/103
f 25/19/105 32/21/103 30/21/103
f 32/21/103 25/19/105 27/19/105
f 26/19/106 29/21/101 31/21/101
f 29/21/101 26/19/106 28/19/106
f 27/19/107 31/21/99 32/21/99
f 31/21/99 27/19/107 26/19/107
f 29/21/98 25/19/108 30/21/98
f 25/19/108 29/21/98 28/19/108
f 33/22/109 34/23/110 35/24/111
f 35/24/112 34/23/113 33/22/114
f 35/24/111 36/25/115 37/22/116
f 37/22/117 36/25/118 35/24/112
f 38/26/119 34/23/110 33/22/109
f 33/22/114 34/23/113 38/26/120
f 36/25/115 39/22/121 40/22/122
f 40/22/123 39/22/124 36/25/118
f 41/27/125 42/28/126 43/19/127
f 43/19/128 42/28/129 41/27/130
f 33/22/109 35/24/111 37/22/116
f 37/22/117 35/24/112 33/22/114
f 44/29/131 34/23/110 38/26/119
f 38/26/120 34/23/113 44/29/132
f 43/19/127 42/28/126 45/30/133
f 45/30/134 42/28/129 43/19/128
f 37/22/116 36/25/115 40/22/122
f 40/22/123 36/25/118 37/22/117
f 45/30/133 44/29/131 38/26/119
f 42/28/126 44/29/131 45/30/133
f 38/26/120 44/29/132 45/30/134
f 45/30/134 44/29/132 42/28/129
f 46/19/135 47/27/136 48/19/136
f 47/27/136 46/19/135 49/27/135
f 48/19/137 47/27/137 46/19/138
f 49/27/138 46/19/138 47/27/137
f 48/19/136 50/27/139 51/19/139
f 50/27/139 48/19/136 47/27/136
f 51/19/140 50/27/140 48/19/137
f 47/27/137 48/19/137 50/27/140
f 51/19/139 41/27/125 43/19/127
f 41/27/125 51/19/139 50/27/139
f 43/19/128 41/27/130 51/19/140
f 50/27/140 51/19/140 41/27/130
f 52/27/75 53/27/75 54/27/75
f 53/27/75 52/27/75 55/27/75
f 55/27/75 52/27/75 56/27/75
f 55/27/75 56/27/75 57/27/75
f 57/27/75 56/27/75 58/27/75
f 57/27/75 58/27/75 59/27/75
f 60/19/80 61/19/80 62/19/80
f 61/19/80 60/19/80 63/19/80
f 63/19/80 60/19/80 64/19/80
f 63/19/80 64/19/80 65/19/80
f 65/19/80 64/19/80 66/19/80
f 65/19/80 66/19/80 67/19/80
f 61/19/141 53/27/142 62/19/142
f 53/27/142 61/19/141 54/27/141
f 64/19/143 55/27/144 57/27/143
f 55/27/144 64/19/143 60/19/144
f 58/27/145 66/19/146 59/27/146
f 66/19/146 58/27/145 67/19/145
f 63/19/147 56/27/148 52/27/147
f 56/27/148 63/19/147 65/19/148
f 63/19/147 54/27/141 61/19/141
f 54/27/141 63/19/147 52/27/147
f 62/19/142 55/27/144 60/19/144
f 55/27/144 62/19/142 53/27/142
f 66/19/146 57/27/143 59/27/146
f 57/27/143 66/19/146 64/19/143
f 65/19/148 58/27/145 56/27/148
f 58/27/145 65/19/148 67/19/145
s off
